-------------------------------------------------------------------------------
Test set: StringCalculatorTest
-------------------------------------------------------------------------------
Tests run: 8, Failures: 0, Errors: 0, Skipped: 0, Time elapsed: 0.087 s - in StringCalculatorTest
